\relax 
\@writefile{toc}{\contentsline {section}{\numberline {1}The Problem}{1}}
\@writefile{toc}{\contentsline {section}{\numberline {2}Before and after: Raw and analysis-ready .fasta formats}{1}}
\@writefile{toc}{\contentsline {section}{\numberline {3}Methods: Downloading sequence data}{2}}
\@writefile{toc}{\contentsline {section}{\numberline {4}Methods: Creating single-gene files}{2}}
\@writefile{toc}{\contentsline {section}{\numberline {5}Methods: Formatting FASTA sequences}{3}}
\@writefile{toc}{\contentsline {section}{\numberline {6}Methods: Creating and updating a database}{4}}
\@writefile{toc}{\contentsline {section}{\numberline {7}Querying the database}{5}}
\@writefile{toc}{\contentsline {section}{\numberline {8}Documentation to run the code}{6}}
\@writefile{toc}{\contentsline {section}{\numberline {9}Results}{7}}
\@writefile{toc}{\contentsline {section}{\numberline {10}Discussion and Future Directions}{8}}
\@writefile{toc}{\contentsline {section}{\numberline {11}Appendix A: Automating GenBank Downloading}{8}}
