ID,SpeciesID,division
1,Acrosiphonia coalita,G
2,Ahnfeltia fastigiata,R
3,Alaria marginata,B
4,Analipus japonicus,B
5,Bangia ,R
6,Blidingia minima,G
7,Bossiella ,R
8,Calliarthron tuberculosum,R
9,Callithamnion pikeanum,R
10,Ceramium pacificum,R
11,Cladophora columbiana,G
12,Codium fragile,G
13,Codium setchellii,G
14,Corallina cretacea,R
15,Corallina frondescens,R
16,Corallina officinalis,R
17,Corallina vancouveriensis,R
18,Cryptopleura ruprechtiana,R
19,Cumagloia andersonii,R
20,Dilsea pygmaea,R
21,Endocladia muricata,R
22,Fucus gardneri,B
23,Halosaccion glandiformis,R
24,Hildenbrandia ,R
25,Hymenena multiloba,R
26,Leathesia marina,B
27,Lithophyllum impressum,R
28,Lithothamnion phymatodeum,R
29,Mastocarpus alaskensis,R
30,Mastocarpus jardiini,R
31,Mazzaella affinis,R
32,Mazzaella flaccida,R
33,Mazzaella parksii,R
34,Mazzaella splendens,R
35,Microcladia borealis,R
36,Neorhodomela larix,R
37,Odonthalia floccosa,R
38,Osmundea spectabilis,R
39,Palmaria palmata,R
40,Pelvetiopsis limitata,B
41,Phyllospadix scouleri,V
42,Plocamium ,R
43,Polysiphonia ,R
44,Porphyra ,R
45,Pseudolithophyllum muricatum,R
46,Pseudophyllum whidbeynse,R
47,Ralfsia ,B
48,Saccharina groendlandica,B
49,Saccharina sessilis,B
50,Ulva intestinalis,G
51,Ulva lactuta,G
52,Urospora wormskioldii,G
53,Weeksia coccinea,R
